[
  {
    "id": 1,
    "name":"Моссад. Найвидатніші операції ізраїльської розвідки",
    "author":"Ніссім Мішал",
    "year":2022
  },
  {
    "id": 2,
    "name":"Бесіди майстра Хай Tao про стратегію. Том 2",
    "author":"Валерій Пекар",
    "year":2022
  },
  {
    "id": 3,
    "name":"Зелене світло",
    "author":"Меттью Макконахі",
    "year":2021
  },
  {
    "id": 4,
    "name":"Дім Ґуччі. Сенсаційна історія вбивства, божевілля, гламуру та пожадливості",
    "author":"Сара Гей Форден",
    "year":2022
  },
  {
    "id": 5,
    "name":"Шляхетна сила. Моє життя, мій футбол",
    "author":"Андрій Шевченко",
    "year":2021
  },
  {
    "id": 6,
    "name":"Стійкість. Тяжко виборена мудрість для ліпшого життя",
    "author":"Ерік Грітенс",
    "year":2022
  },
  {
    "id": 7,
    "name":"MINECRAFT. Ніч Кажанів",
    "author":"Нік Еліопулос",
    "year":2020
  },
  {
    "id": 8,
    "name":"Есенціалізм. Мистецтво визначати пріоритети",
    "author":"Грег Маккеон",
    "year":2021
  },
  {
    "id": 9,
    "name":"Кафе на краю світу",
    "author":"Джон Стрелекі",
    "year":2019
  }
]